…
### Install Feature

We may need to keep it as factor, but we also will need it as numeric, so we are creating a second column with those values

We need to fix an incorrect value for Installs, it's "0" when it should be "0+", also two factors are not needed : "0" and "Free".

``` r
apps_versions_dataset %>% 
  group_by(Installs) %>%
  select(Installs, App) %>%
  summarize(count = n())
```

    ## # A tibble: 21 x 2
    ##    Installs       count
    ##    <fct>          <int>
    ##  1 0                  1
    ##  2 0+                14
    ##  3 1,000,000,000+    58
    ##  4 1,000,000+      1579
    ##  5 1,000+           908
    ##  6 1+                67
    ##  7 10,000,000+     1252
    ##  8 10,000+         1054
    ##  9 10+              386
    ## 10 100,000,000+     409
    ## # … with 11 more rows
…
