…
**And you will see a very, very long list of columns and rows. It's barely readable.** Teams is a data frame with many rows and columns. That's why you see that. Nevertheless, the output just shows everything wraps around and is hard to read. It is so bad that we don't even print it here. We'll let you print it on your own screen. Now if you convert this data frame to a tibble data frame, the output is much more readable. Here's an example.

``` r
as_tibble(Teams)
```

    ## # A tibble: 2,835 x 48
    ##    yearID lgID  teamID franchID divID  Rank     G Ghome     W     L DivWin
    ##     <int> <fct> <fct>  <fct>    <chr> <int> <int> <int> <int> <int> <chr> 
    ##  1   1871 NA    BS1    BNA      <NA>      3    31    NA    20    10 <NA>  
    ##  2   1871 NA    CH1    CNA      <NA>      2    28    NA    19     9 <NA>  
    ##  3   1871 NA    CL1    CFC      <NA>      8    29    NA    10    19 <NA>  
    ##  4   1871 NA    FW1    KEK      <NA>      7    19    NA     7    12 <NA>  
    ##  5   1871 NA    NY2    NNA      <NA>      5    33    NA    16    17 <NA>  
    ##  6   1871 NA    PH1    PNA      <NA>      1    28    NA    21     7 <NA>  
    ##  7   1871 NA    RC1    ROK      <NA>      9    25    NA     4    21 <NA>  
    ##  8   1871 NA    TRO    TRO      <NA>      6    29    NA    13    15 <NA>  
    ##  9   1871 NA    WS3    OLY      <NA>      4    32    NA    15    15 <NA>  
    ## 10   1872 NA    BL1    BLC      <NA>      2    58    NA    35    19 <NA>  
    ## # ... with 2,825 more rows, and 37 more variables: WCWin <chr>,
    ## #   LgWin <chr>, WSWin <chr>, R <int>, AB <int>, H <int>, X2B <int>,
    ## #   X3B <int>, HR <int>, BB <int>, SO <int>, SB <int>, CS <int>,
    ## #   HBP <int>, SF <int>, RA <int>, ER <int>, ERA <dbl>, CG <int>,
    ## #   SHO <int>, SV <int>, IPouts <int>, HA <int>, HRA <int>, BBA <int>,
    ## #   SOA <int>, E <int>, DP <int>, FP <dbl>, name <chr>, park <chr>,
    ## #   attendance <int>, BPF <int>, PPF <int>, teamIDBR <chr>,
    ## #   teamIDlahman45 <chr>, teamIDretro <chr>
…
            BB = sum(BB)/G,
            singles = sum(H-X2B-X3B-HR)/G,
            doubles = sum(X2B)/G,
            triples = sum(X3B)/G,
            HR = sum(HR)/G,
            AVG = sum(H)/sum(AB),
            PA = sum(PA)) %>%
  filter(PA >= 300) %>%
  select(-G) %>%
  mutate(R_hat = predict(fit,newdata=.))
#Batting
players
```

    ## # A tibble: 465 x 9
    ##    playerID     BB singles doubles triples    HR   AVG    PA R_hat
    ##    <chr>     <dbl>   <dbl>   <dbl>   <dbl> <dbl> <dbl> <int> <dbl>
    ##  1 abbotje01  3.28    6.21    2.03  0.113  0.565 0.252   343  4.20
    ##  2 abbotku01  2.41    5.87    1.93  0.241  1.13  0.252   482  4.59
    ##  3 abernbr01  3.16    6.91    1.99  0.117  0.585 0.270   331  4.52
    ##  4 abreubo01  6.03    5.91    2.39  0.478  1.45  0.313  2025  7.08
    ##  5 agbaybe01  4.53    6.31    1.89  0.223  1.30  0.284  1044  5.80
    ##  6 alexama02  2.26    6.39    1.48  0.492  0.393 0.240   394  3.71
    ##  7 alfoned01  4.81    6.31    2.15  0.0625 1.44  0.293  1860  6.10
    ##  8 alicelu01  3.55    7.16    1.65  0.387  0.419 0.273  1201  4.62
    ##  9 allench01  2.99    6.99    1.87  0.253  0.709 0.275   765  4.75
    ## 10 alomaro01  4.73    7.20    2.22  0.331  1.23  0.323  1991  6.62
    ## # ... with 455 more rows
…
``` r
players <- Fielding %>%  filter(yearID == 2002) %>%
  filter(!POS %in% c("OF","P")) %>%
  group_by(playerID) %>%
  top_n(1, G) %>%
  filter(row_number(G) == 1) %>%
  ungroup() %>%
  select(playerID, POS) %>%
  right_join(players, by="playerID") %>%
  filter(!is.na(POS) & !is.na(salary))
players
```

    ## # A tibble: 242 x 11
    ##    playerID POS   salary    BB singles doubles triples    HR   AVG    PA
    ##    <chr>    <chr>  <int> <dbl>   <dbl>   <dbl>   <dbl> <dbl> <dbl> <int>
    ##  1 abernbr~ 2B    2.15e5  3.16    6.91    1.99  0.117  0.585 0.270   331
    ##  2 alfoned~ 3B    6.20e6  4.81    6.31    2.15  0.0625 1.44  0.293  1860
    ##  3 alicelu~ 2B    8.00e5  3.55    7.16    1.65  0.387  0.419 0.273  1201
    ##  4 alomaro~ 2B    7.94e6  4.73    7.20    2.22  0.331  1.23  0.323  1991
    ##  5 alomasa~ C     2.50e6  1.66    7.39    1.92  0.156  0.884 0.279   745
    ##  6 anderma~ 2B    4.00e5  2.28    6.93    2.05  0.225  0.546 0.268  1207
    ##  7 aurilri~ SS    5.25e6  3.02    6.92    1.76  0.168  1.66  0.294  1847
    ##  8 ausmubr~ C     5.00e6  3.74    6.39    1.82  0.324  0.524 0.259  1553
    ##  9 bagweje~ 1B    1.10e7  6.63    5.11    2.11  0.0916 2.35  0.301  2114
    ## 10 bakopa01 C     7.50e5  4.38    5.46    2.04  0.180  0.360 0.234   646
    ## # ... with 232 more rows, and 1 more variable: R_hat <dbl>
…
Now let's look at the top performers of 2013 and then look at their performance in 2014. Note that the same pattern arises when we look at the top performers. Batting averages go down for the top performers. But these are not rookies. So this can't be explained with a sophomore slump. Also know what happens to the worst performers of 2013. Here they are.

``` r
arrange(two_years, `2013`)
```

    ## # A tibble: 312 x 4
    ##    `2013` `2014` nameFirst nameLast 
    ##     <dbl>  <dbl> <chr>     <chr>    
    ##  1  0.158  0.219 Danny     Espinosa 
    ##  2  0.179  0.149 Dan       Uggla    
    ##  3  0.181  0.2   Jeff      Mathis   
    ##  4  0.184  0.208 Melvin    Upton    
    ##  5  0.190  0.262 Adam      Rosales  
    ##  6  0.192  0.215 Aaron     Hicks    
    ##  7  0.194  0.229 Chris     Colabello
    ##  8  0.194  0.177 J. P.     Arencibia
    ##  9  0.195  0.241 Tyler     Flowers  
    ## 10  0.198  0.218 Ryan      Hanigan  
    ## # ... with 302 more rows
…
